[{"line":1,"elements":[{"start_timestamp":"2023-12-26T20:25:19.599Z","line":3,"name":"Get a user","description":"","id":"get-a-user","type":"scenario","keyword":"Scenario","steps":[{"name":"url \"https:\/\/reqres.in\" + \"\/api\/users\/\" + \"1\"","result":{"duration":9121800,"status":"passed"},"match":{"location":"karate","arguments":[]},"keyword":"Given","line":4},{"name":"method get","result":{"duration":672590500,"status":"passed"},"match":{"location":"karate","arguments":[]},"keyword":"When","line":5,"doc_string":{"content_type":"","value":"15:25:19.791 request:\n1 > GET https:\/\/reqres.in\/api\/users\/1\n1 > Host: reqres.in\n1 > Connection: Keep-Alive\n1 > User-Agent: Apache-HttpClient\/4.5.13 (Java\/17.0.9)\n1 > Accept-Encoding: gzip,deflate\n\n\n15:25:20.290 response time in milliseconds: 496\n1 < 200\n1 < Date: Tue, 26 Dec 2023 20:25:25 GMT\n1 < Content-Type: application\/json; charset=utf-8\n1 < Transfer-Encoding: chunked\n1 < Connection: keep-alive\n1 < Report-To: {\"group\":\"heroku-nel\",\"max_age\":3600,\"endpoints\":[{\"url\":\"https:\/\/nel.heroku.com\/reports?ts=1701237016&sid=c4c9725f-1ab0-44d8-820f-430df2718e11&s=IjVHIdsDvuLmm06JyWoRcFaBHkF6wyng%2FDMsjdfGF%2Bw%3D\"}]}\n1 < Reporting-Endpoints: heroku-nel=https:\/\/nel.heroku.com\/reports?ts=1701237016&sid=c4c9725f-1ab0-44d8-820f-430df2718e11&s=IjVHIdsDvuLmm06JyWoRcFaBHkF6wyng%2FDMsjdfGF%2Bw%3D\n1 < Nel: {\"report_to\":\"heroku-nel\",\"max_age\":3600,\"success_fraction\":0.005,\"failure_fraction\":0.05,\"response_headers\":[\"Via\"]}\n1 < X-Powered-By: Express\n1 < Access-Control-Allow-Origin: *\n1 < Etag: W\/\"118-P3iKcVpIgCj9HqYeOOrGLX8qJVc\"\n1 < Via: 1.1 vegur\n1 < Cache-Control: max-age=14400\n1 < CF-Cache-Status: HIT\n1 < Age: 1086\n1 < Vary: Accept-Encoding\n1 < Server: cloudflare\n1 < CF-RAY: 83bc0d8bedb91cf7-GRU\n{\"data\":{\"id\":1,\"email\":\"george.bluth@reqres.in\",\"first_name\":\"George\",\"last_name\":\"Bluth\",\"avatar\":\"https:\/\/reqres.in\/img\/faces\/1-image.jpg\"},\"support\":{\"url\":\"https:\/\/reqres.in\/#support-heading\",\"text\":\"To keep ReqRes free, contributions towards server costs are appreciated!\"}}\n\n","line":5}},{"name":"status 200","result":{"duration":16700,"status":"passed"},"match":{"location":"karate","arguments":[]},"keyword":"Then","line":6}],"tags":[]},{"start_timestamp":"2023-12-26T20:25:19.599Z","line":8,"name":"Get a user list","description":"","id":"get-a-user-list","type":"scenario","keyword":"Scenario","steps":[{"name":"def jsonResponse = read(\"..\/json\/list-of-users.json\")","result":{"duration":64053300,"status":"passed"},"match":{"location":"karate","arguments":[]},"keyword":"*","line":9},{"name":"url \"https:\/\/reqres.in\/api\/users?page=1\"","result":{"duration":515100,"status":"passed"},"match":{"location":"karate","arguments":[]},"keyword":"Given","line":10},{"name":"method get","result":{"duration":617894700,"status":"passed"},"match":{"location":"karate","arguments":[]},"keyword":"When","line":11,"doc_string":{"content_type":"","value":"15:25:19.792 request:\n1 > GET https:\/\/reqres.in\/api\/users?page=1\n1 > Host: reqres.in\n1 > Connection: Keep-Alive\n1 > User-Agent: Apache-HttpClient\/4.5.13 (Java\/17.0.9)\n1 > Accept-Encoding: gzip,deflate\n\n\n15:25:20.289 response time in milliseconds: 495\n1 < 200\n1 < Date: Tue, 26 Dec 2023 20:25:25 GMT\n1 < Content-Type: application\/json; charset=utf-8\n1 < Transfer-Encoding: chunked\n1 < Connection: keep-alive\n1 < Report-To: {\"group\":\"heroku-nel\",\"max_age\":3600,\"endpoints\":[{\"url\":\"https:\/\/nel.heroku.com\/reports?ts=1703561817&sid=c4c9725f-1ab0-44d8-820f-430df2718e11&s=BfWLl3l%2FUy9dY17slaDbG1SPdWY%2FxLrpNP09G3iWxeM%3D\"}]}\n1 < Reporting-Endpoints: heroku-nel=https:\/\/nel.heroku.com\/reports?ts=1703561817&sid=c4c9725f-1ab0-44d8-820f-430df2718e11&s=BfWLl3l%2FUy9dY17slaDbG1SPdWY%2FxLrpNP09G3iWxeM%3D\n1 < Nel: {\"report_to\":\"heroku-nel\",\"max_age\":3600,\"success_fraction\":0.005,\"failure_fraction\":0.05,\"response_headers\":[\"Via\"]}\n1 < X-Powered-By: Express\n1 < Access-Control-Allow-Origin: *\n1 < Etag: W\/\"3e4-2RLXvr5wTg9YQ6aH95CkYoFNuO8\"\n1 < Via: 1.1 vegur\n1 < Cache-Control: max-age=14400\n1 < CF-Cache-Status: HIT\n1 < Age: 2946\n1 < Vary: Accept-Encoding\n1 < Server: cloudflare\n1 < CF-RAY: 83bc0d8bea531ce7-GRU\n{\"page\":1,\"per_page\":6,\"total\":12,\"total_pages\":2,\"data\":[{\"id\":1,\"email\":\"george.bluth@reqres.in\",\"first_name\":\"George\",\"last_name\":\"Bluth\",\"avatar\":\"https:\/\/reqres.in\/img\/faces\/1-image.jpg\"},{\"id\":2,\"email\":\"janet.weaver@reqres.in\",\"first_name\":\"Janet\",\"last_name\":\"Weaver\",\"avatar\":\"https:\/\/reqres.in\/img\/faces\/2-image.jpg\"},{\"id\":3,\"email\":\"emma.wong@reqres.in\",\"first_name\":\"Emma\",\"last_name\":\"Wong\",\"avatar\":\"https:\/\/reqres.in\/img\/faces\/3-image.jpg\"},{\"id\":4,\"email\":\"eve.holt@reqres.in\",\"first_name\":\"Eve\",\"last_name\":\"Holt\",\"avatar\":\"https:\/\/reqres.in\/img\/faces\/4-image.jpg\"},{\"id\":5,\"email\":\"charles.morris@reqres.in\",\"first_name\":\"Charles\",\"last_name\":\"Morris\",\"avatar\":\"https:\/\/reqres.in\/img\/faces\/5-image.jpg\"},{\"id\":6,\"email\":\"tracey.ramos@reqres.in\",\"first_name\":\"Tracey\",\"last_name\":\"Ramos\",\"avatar\":\"https:\/\/reqres.in\/img\/faces\/6-image.jpg\"}],\"support\":{\"url\":\"https:\/\/reqres.in\/#support-heading\",\"text\":\"To keep ReqRes free, contributions towards server costs are appreciated!\"}}\n\n","line":11}},{"name":"status 200","result":{"duration":8800,"status":"passed"},"match":{"location":"karate","arguments":[]},"keyword":"Then","line":12},{"name":"match $ == {\"page\":1,\"per_page\":6,\"total\":12,\"total_pages\":2,\"data\":[{\"id\":1,\"email\":\"george.bluth@reqres.in\",\"first_name\":\"George\",\"last_name\":\"Bluth\",\"avatar\":\"https:\/\/reqres.in\/img\/faces\/1-image.jpg\"},{\"id\":2,\"email\":\"janet.weaver@reqres.in\",\"first_name\":\"Janet\",\"last_name\":\"Weaver\",\"avatar\":\"https:\/\/reqres.in\/img\/faces\/2-image.jpg\"},{\"id\":3,\"email\":\"emma.wong@reqres.in\",\"first_name\":\"Emma\",\"last_name\":\"Wong\",\"avatar\":\"https:\/\/reqres.in\/img\/faces\/3-image.jpg\"},{\"id\":4,\"email\":\"eve.holt@reqres.in\",\"first_name\":\"Eve\",\"last_name\":\"Holt\",\"avatar\":\"https:\/\/reqres.in\/img\/faces\/4-image.jpg\"},{\"id\":5,\"email\":\"charles.morris@reqres.in\",\"first_name\":\"Charles\",\"last_name\":\"Morris\",\"avatar\":\"https:\/\/reqres.in\/img\/faces\/5-image.jpg\"},{\"id\":6,\"email\":\"tracey.ramos@reqres.in\",\"first_name\":\"Tracey\",\"last_name\":\"Ramos\",\"avatar\":\"https:\/\/reqres.in\/img\/faces\/6-image.jpg\"}],\"support\":{\"url\":\"https:\/\/reqres.in\/#support-heading\",\"text\":\"To keep ReqRes free, contributions towards server costs are appreciated!\"}}","result":{"duration":23142600,"status":"passed"},"match":{"location":"karate","arguments":[]},"keyword":"And","line":13},{"name":"match $ == jsonResponse","result":{"duration":573500,"status":"passed"},"match":{"location":"karate","arguments":[]},"keyword":"And","line":14},{"name":"match $ == read(\"..\/json\/list-of-users.json\")","result":{"duration":1528000,"status":"passed"},"match":{"location":"karate","arguments":[]},"keyword":"And","line":15}],"tags":[]}],"name":"users\/get\/user-get.feature","description":"Get user on reqres.in","id":"get-user-on-reqres.in","keyword":"Feature","uri":"users\/get\/user-get.feature"}]